Workdir: "/home/trevor/projects/others/LibAFL/fuzzers/gatech"
We're the client (internal port already bound by broker, Os {
    code: 98,
    kind: AddrInUse,
    message: "Address already in use",
})
Connected to port 1337
[/home/trevor/projects/others/LibAFL/libafl/src/events/llmp.rs:959] "Spawning next client (id {})" = "Spawning next client (id {})"
[/home/trevor/projects/others/LibAFL/libafl/src/events/llmp.rs:959] ctr = 0
Awaiting safe_to_unmap_blocking
First run. Let's set it all up
Input added from corpus (add_input)
INFO: hit abort() #0 at /home/trevor/projects/trevor/zebrasim/zebrasim.c:199 (1 times)
INFO: hit abort() #2 at /home/trevor/projects/trevor/zebrasim/zebrasim.c:394 (1 times)
INFO: hit abort() #9 at /home/trevor/projects/trevor/zebrasim/zebrasim.c:551 (1 times)
INFO: hit abort() #3 at /home/trevor/projects/trevor/zebrasim/zebrasim.c:774 (1 times)
INFO: hit abort() #1 at /home/trevor/projects/trevor/zebrasim/zebrasim.c:299 (1 times)
INFO: hit abort() #6 at /home/trevor/projects/trevor/zebrasim/zebrasim.c:320 (1 times)
INFO: hit abort() #5 at /home/trevor/projects/trevor/zebrasim/zebrasim.c:456 (1 times)
INFO: hit abort() #4 at /home/trevor/projects/trevor/zebrasim/zebrasim.c:433 (1 times)
INFO: hit abort() #7 at /home/trevor/projects/trevor/zebrasim/zebrasim.c:358 (1 times)
INFO: hit abort() #8 at /home/trevor/projects/trevor/zebrasim/zebrasim.c:514 (1 times)
INFO: all bugs reached, exiting!
FUZZ HARNESS STATS:
 * APDUs:
  - 0: 0
  - 1: 597607
  - 2: 332343
  - 3: 265087
 * ABORTs:
  - 0: 479 (1 s)
  - 1: 16 (9 s)
  - 2: 22 (1 s)
  - 3: 25 (8 s)
  - 4: 1 (91 s)
  - 5: 93 (31 s)
  - 6: 20 (12 s)
  - 7: 2 (114 s)
  - 8: 1 (176 s)
  - 9: 290 (2 s)
Total time: 176 s
UNIX SIG HANDLER

INPROCESS SIG HANDLER

TREV: inprocess crash hook
Crashed with SIGABRT
Child crashed!
input: "f5afc4313981964e"
━━━━━━━━━━━━━━━━━━━━━━━━━━━━━━━━━━━━━━━━━━━━━━ CRASH ━━━━━━━━━━━━━━━━━━━━━━━━━━━━━━━━━━━━━━━━━━━━━━━
Received signal SIGABRT at 0x007f6d42c8e36c, fault address: 0x00000000000000
━━━━━━━━━━━━━━━━━━━━━━━━━━━━━━━━━━━━━━━━━━━━ REGISTERS ━━━━━━━━━━━━━━━━━━━━━━━━━━━━━━━━━━━━━━━━━━━━━
r8 : 0x00000000000000, r9 : 0x00000000000075, r10: 0x00000000000008, r11: 0x00000000000246, 
r12: 0x00000000000006, r13: 0x007ffd68bcbd90, r14: 0x007ffd68bcba28, r15: 0x007ffd68bcb3a0, 
rdi: 0x0000000017ea6c, rsi: 0x0000000017ea6c, rbp: 0x007f6d43333180, rbx: 0x0000000017ea6c, 
rdx: 0x00000000000006, rax: 0x00000000000000, rcx: 0x007f6d42c8e36c, rsp: 0x007ffd68bcad50, 
rip: 0x007f6d42c8e36c, efl: 0x00000000000246, 
━━━━━━━━━━━━━━━━━━━━━━━━━━━━━━━━━━━━━━━━━━━━ BACKTRACE ━━━━━━━━━━━━━━━━━━━━━━━━━━━━━━━━━━━━━━━━━━━━━
   0: libafl::bolts::minibsod::generate_minibsod
             at /home/trevor/projects/others/LibAFL/libafl/src/bolts/minibsod.rs:284:30
   1: libafl::executors::inprocess::unix_signal_handler::inproc_crash_handler
             at /home/trevor/projects/others/LibAFL/libafl/src/executors/inprocess.rs:778:17
   2: libafl::executors::inprocess::unix_signal_handler::<impl libafl::bolts::os::unix_signals::Handler for libafl::executors::inprocess::InProcessExecutorHandlerData>::handle
   3: libafl::bolts::os::unix_signals::handle_signal
             at /home/trevor/projects/others/LibAFL/libafl/src/bolts/os/unix_signals.rs:223:5
   4: <unknown>
   5: <unknown>
   6: gsignal
   7: abort
   8: secret_dispatch
   9: apdu_dispatch
  10: apdu_parse
  11: ccid_parse
  12: LLVMFuzzerTestOneInputHw
  13: libafl_targets::libfuzzer::libfuzzer_test_one_input_hw
             at /home/trevor/projects/others/LibAFL/libafl_targets/src/libfuzzer.rs:69:14
      zebrafuzz::hw_fuzz::{{closure}}
             at src/lib.rs:142:9
      <libafl::executors::inprocess::GenericInProcessExecutor<H,HB,I,OT,S> as libafl::executors::Executor<EM,I,S,Z>>::run_target
             at /home/trevor/projects/others/LibAFL/libafl/src/executors/inprocess.rs:116:19
      libafl::fuzzer::StdFuzzer<CS,F,I,OF,OT,S>::execute_input
             at /home/trevor/projects/others/LibAFL/libafl/src/fuzzer/mod.rs:730:25
      <libafl::fuzzer::StdFuzzer<CS,F,I,OF,OT,S> as libafl::fuzzer::EvaluatorObservers<I,OT,S>>::evaluate_input_with_observers
             at /home/trevor/projects/others/LibAFL/libafl/src/fuzzer/mod.rs:543:25
  14: libafl::events::llmp::LlmpEventManager<I,OT,S,SP>::handle_in_client
             at /home/trevor/projects/others/LibAFL/libafl/src/events/llmp.rs:458:21
      <libafl::events::llmp::LlmpEventManager<I,OT,S,SP> as libafl::events::EventProcessor<E,I,S,Z>>::process
             at /home/trevor/projects/others/LibAFL/libafl/src/events/llmp.rs:599:13
      <libafl::events::llmp::LlmpRestartingEventManager<I,OT,S,SP> as libafl::events::EventProcessor<E,I,S,Z>>::process
             at /home/trevor/projects/others/LibAFL/libafl/src/events/llmp.rs:718:9
  15: zebrafuzz::hw_fuzz
             at src/lib.rs:209:31
  16: libafl_main
             at src/lib.rs:122:11
  17: main
             at /home/trevor/projects/others/LibAFL/libafl_targets/src/libfuzzer.c:24:3
  18: <unknown>
  19: __libc_start_main
  20: _start
             at /build/glibc/src/glibc/csu/../sysdeps/x86_64/start.S:115

━━━━━━━━━━━━━━━━━━━━━━━━━━━━━━━━━━━━━━━━━━━━━━━ MAPS ━━━━━━━━━━━━━━━━━━━━━━━━━━━━━━━━━━━━━━━━━━━━━━━
00400000-00424000 r--p 00000000 fe:03 13501426                           /home/trevor/projects/others/LibAFL/fuzzers/gatech/zebrafuzz
00424000-005a4000 r-xp 00024000 fe:03 13501426                           /home/trevor/projects/others/LibAFL/fuzzers/gatech/zebrafuzz
005a4000-005fa000 r--p 001a4000 fe:03 13501426                           /home/trevor/projects/others/LibAFL/fuzzers/gatech/zebrafuzz
005fb000-0060d000 r--p 001fa000 fe:03 13501426                           /home/trevor/projects/others/LibAFL/fuzzers/gatech/zebrafuzz
0060d000-00648000 rw-p 0020c000 fe:03 13501426                           /home/trevor/projects/others/LibAFL/fuzzers/gatech/zebrafuzz
00648000-02714000 rw-p 00000000 00:00 0 
029c7000-029e8000 rw-p 00000000 00:00 0                                  [heap]
5d031c00000-5d041c00000 rw-p 00000000 00:00 0 
7f6cc0800000-7f6cc0a01000 r--p 00000000 fe:03 16518524                   /usr/lib/libc.so.6
7f6cc0c00000-7f6cc23f5000 r--p 00000000 fe:03 13501426                   /home/trevor/projects/others/LibAFL/fuzzers/gatech/zebrafuzz
7f6cc23ff000-7f6cd23ff000 rw-s 00000000 00:01 1048634                    /SYSV00000000 (deleted)
7f6cd23ff000-7f6ce23ff000 rw-s 00000000 00:01 1048632                    /SYSV00000000 (deleted)
7f6ce23ff000-7f6cf23ff000 rw-s 00000000 00:01 1048627                    /SYSV00000000 (deleted)
7f6cf23ff000-7f6cf2c00000 rw-p 00000000 00:00 0 
7f6cf2c00000-7f6d02c00000 rw-s 00000000 00:01 1048577                    /SYSV00000000 (deleted)
7f6d02c00000-7f6d12c00000 rw-s 00000000 00:01 1048618                    /SYSV00000000 (deleted)
7f6d12c00000-7f6d22c00000 rw-s 00000000 00:01 1048619                    /SYSV00000000 (deleted)
7f6d22c00000-7f6d32c00000 rw-s 00000000 00:01 1048618                    /SYSV00000000 (deleted)
7f6d32c00000-7f6d42c00000 rw-s 00000000 00:01 1048577                    /SYSV00000000 (deleted)
7f6d42c00000-7f6d42c28000 r--p 00000000 fe:03 16518524                   /usr/lib/libc.so.6
7f6d42c28000-7f6d42da0000 r-xp 00028000 fe:03 16518524                   /usr/lib/libc.so.6
7f6d42da0000-7f6d42df8000 r--p 001a0000 fe:03 16518524                   /usr/lib/libc.so.6
7f6d42df8000-7f6d42df9000 ---p 001f8000 fe:03 16518524                   /usr/lib/libc.so.6
7f6d42df9000-7f6d42dfd000 r--p 001f8000 fe:03 16518524                   /usr/lib/libc.so.6
7f6d42dfd000-7f6d42dff000 rw-p 001fc000 fe:03 16518524                   /usr/lib/libc.so.6
7f6d42dff000-7f6d42e0c000 rw-p 00000000 00:00 0 
7f6d42f19000-7f6d42f27000 r--p 00000000 fe:03 16518539                   /usr/lib/libm.so.6
7f6d42f27000-7f6d42fa0000 r-xp 0000e000 fe:03 16518539                   /usr/lib/libm.so.6
7f6d42fa0000-7f6d42ffe000 r--p 00087000 fe:03 16518539                   /usr/lib/libm.so.6
7f6d42ffe000-7f6d42fff000 r--p 000e4000 fe:03 16518539                   /usr/lib/libm.so.6
7f6d42fff000-7f6d43000000 rw-p 000e5000 fe:03 16518539                   /usr/lib/libm.so.6
7f6d43000000-7f6d43075000 r--p 00000000 fe:03 16522736                   /usr/lib/libcrypto.so.1.1
7f6d43075000-7f6d43221000 r-xp 00075000 fe:03 16522736                   /usr/lib/libcrypto.so.1.1
7f6d43221000-7f6d432ae000 r--p 00221000 fe:03 16522736                   /usr/lib/libcrypto.so.1.1
7f6d432ae000-7f6d432af000 ---p 002ae000 fe:03 16522736                   /usr/lib/libcrypto.so.1.1
7f6d432af000-7f6d432da000 r--p 002ae000 fe:03 16522736                   /usr/lib/libcrypto.so.1.1
7f6d432da000-7f6d432dc000 rw-p 002d9000 fe:03 16522736                   /usr/lib/libcrypto.so.1.1
7f6d432dc000-7f6d432e0000 rw-p 00000000 00:00 0 
7f6d43332000-7f6d43334000 rw-p 00000000 00:00 0 
7f6d43334000-7f6d43336000 r--p 00000000 fe:03 16519294                   /usr/lib/libatomic.so.1.2.0
7f6d43336000-7f6d43339000 r-xp 00002000 fe:03 16519294                   /usr/lib/libatomic.so.1.2.0
7f6d43339000-7f6d4333b000 r--p 00005000 fe:03 16519294                   /usr/lib/libatomic.so.1.2.0
7f6d4333b000-7f6d4333c000 r--p 00006000 fe:03 16519294                   /usr/lib/libatomic.so.1.2.0
7f6d4333c000-7f6d4333d000 rw-p 00007000 fe:03 16519294                   /usr/lib/libatomic.so.1.2.0
7f6d4333d000-7f6d4333e000 rw-p 00000000 00:00 0 
7f6d4333e000-7f6d43341000 r--p 00000000 fe:03 16519297                   /usr/lib/libgcc_s.so.1
7f6d43341000-7f6d43358000 r-xp 00003000 fe:03 16519297                   /usr/lib/libgcc_s.so.1
7f6d43358000-7f6d4335c000 r--p 0001a000 fe:03 16519297                   /usr/lib/libgcc_s.so.1
7f6d4335c000-7f6d4335d000 r--p 0001d000 fe:03 16519297                   /usr/lib/libgcc_s.so.1
7f6d4335d000-7f6d4335e000 rw-p 0001e000 fe:03 16519297                   /usr/lib/libgcc_s.so.1
7f6d4335e000-7f6d43360000 rw-p 00000000 00:00 0 
7f6d43360000-7f6d43365000 r--p 00000000 fe:03 16540581                   /usr/lib/libusb-1.0.so.0.3.0
7f6d43365000-7f6d43374000 r-xp 00005000 fe:03 16540581                   /usr/lib/libusb-1.0.so.0.3.0
7f6d43374000-7f6d4337c000 r--p 00014000 fe:03 16540581                   /usr/lib/libusb-1.0.so.0.3.0
7f6d4337c000-7f6d4337d000 ---p 0001c000 fe:03 16540581                   /usr/lib/libusb-1.0.so.0.3.0
7f6d4337d000-7f6d4337e000 r--p 0001c000 fe:03 16540581                   /usr/lib/libusb-1.0.so.0.3.0
7f6d4337e000-7f6d4337f000 rw-p 0001d000 fe:03 16540581                   /usr/lib/libusb-1.0.so.0.3.0
7f6d4337f000-7f6d43384000 r--p 00000000 fe:03 16563505                   /usr/lib/libudev.so.1.7.4
7f6d43384000-7f6d4339f000 r-xp 00005000 fe:03 16563505                   /usr/lib/libudev.so.1.7.4
7f6d4339f000-7f6d433aa000 r--p 00020000 fe:03 16563505                   /usr/lib/libudev.so.1.7.4
7f6d433aa000-7f6d433ab000 ---p 0002b000 fe:03 16563505                   /usr/lib/libudev.so.1.7.4
7f6d433ab000-7f6d433ac000 r--p 0002b000 fe:03 16563505                   /usr/lib/libudev.so.1.7.4
7f6d433ac000-7f6d433ad000 rw-p 0002c000 fe:03 16563505                   /usr/lib/libudev.so.1.7.4
7f6d433ad000-7f6d433ca000 r--p 00000000 fe:03 16522740                   /usr/lib/libssl.so.1.1
7f6d433ca000-7f6d4341d000 r-xp 0001d000 fe:03 16522740                   /usr/lib/libssl.so.1.1
7f6d4341d000-7f6d43435000 r--p 00070000 fe:03 16522740                   /usr/lib/libssl.so.1.1
7f6d43435000-7f6d4343e000 r--p 00087000 fe:03 16522740                   /usr/lib/libssl.so.1.1
7f6d4343e000-7f6d43442000 rw-p 00090000 fe:03 16522740                   /usr/lib/libssl.so.1.1
7f6d43465000-7f6d43467000 rw-p 00000000 00:00 0 
7f6d43467000-7f6d43469000 r--p 00000000 fe:03 16518513                   /usr/lib/ld-linux-x86-64.so.2
7f6d43469000-7f6d43490000 r-xp 00002000 fe:03 16518513                   /usr/lib/ld-linux-x86-64.so.2
7f6d43490000-7f6d4349b000 r--p 00029000 fe:03 16518513                   /usr/lib/ld-linux-x86-64.so.2
7f6d4349c000-7f6d4349e000 r--p 00034000 fe:03 16518513                   /usr/lib/ld-linux-x86-64.so.2
7f6d4349e000-7f6d434a0000 rw-p 00036000 fe:03 16518513                   /usr/lib/ld-linux-x86-64.so.2
7ffd68bac000-7ffd68bcd000 rw-p 00000000 00:00 0                          [stack]
7ffd68bea000-7ffd68bee000 r--p 00000000 00:00 0                          [vvar]
7ffd68bee000-7ffd68bf0000 r-xp 00000000 00:00 0                          [vdso]
ffffffffff600000-ffffffffff601000 --xp 00000000 00:00 0                  [vsyscall]
Crash handler in HW fuzzer, exiting completely.
Waiting for broker...
Bye!
TREV TEMP: exiting early
