Workdir: "/home/trevor/projects/others/LibAFL/fuzzers/gatech"
We're the client (internal port already bound by broker, Os {
    code: 98,
    kind: AddrInUse,
    message: "Address already in use",
})
Connected to port 1337
[/home/trevor/projects/others/LibAFL/libafl/src/events/llmp.rs:959] "Spawning next client (id {})" = "Spawning next client (id {})"
[/home/trevor/projects/others/LibAFL/libafl/src/events/llmp.rs:959] ctr = 0
First run. Let's set it all up
Input added from corpus (add_input)
INFO: hit abort() #2 at /home/trevor/projects/trevor/zebrasim/zebrasim.c:394 (1 times)
INFO: hit abort() #0 at /home/trevor/projects/trevor/zebrasim/zebrasim.c:199 (1 times)
INFO: hit abort() #6 at /home/trevor/projects/trevor/zebrasim/zebrasim.c:320 (1 times)
INFO: hit abort() #1 at /home/trevor/projects/trevor/zebrasim/zebrasim.c:299 (1 times)
INFO: hit abort() #3 at /home/trevor/projects/trevor/zebrasim/zebrasim.c:774 (1 times)
INFO: hit abort() #5 at /home/trevor/projects/trevor/zebrasim/zebrasim.c:456 (1 times)
INFO: hit abort() #4 at /home/trevor/projects/trevor/zebrasim/zebrasim.c:433 (1 times)
INFO: hit abort() #9 at /home/trevor/projects/trevor/zebrasim/zebrasim.c:551 (1 times)
INFO: hit abort() #7 at /home/trevor/projects/trevor/zebrasim/zebrasim.c:358 (1 times)
INFO: hit abort() #8 at /home/trevor/projects/trevor/zebrasim/zebrasim.c:514 (1 times)
INFO: all bugs reached, exiting!
FUZZ HARNESS STATS:
 * APDUs:
  - 0: 2
  - 1: 1852991
  - 2: 1071203
  - 3: 800563
 * ABORTs:
  - 0: 1668 (1 s)
  - 1: 47 (6 s)
  - 2: 70 (1 s)
  - 3: 85 (7 s)
  - 4: 6 (30 s)
  - 5: 322 (14 s)
  - 6: 81 (2 s)
  - 7: 7 (104 s)
  - 8: 1 (615 s)
  - 9: 752 (45 s)
Total time: 615 s
UNIX SIG HANDLER

INPROCESS SIG HANDLER

TREV: inprocess crash hook
Crashed with SIGABRT
Child crashed!
input: "2a76b200498a3f4f"
━━━━━━━━━━━━━━━━━━━━━━━━━━━━━━━━━━━━━━━━━━━━━━ CRASH ━━━━━━━━━━━━━━━━━━━━━━━━━━━━━━━━━━━━━━━━━━━━━━━
Received signal SIGABRT at 0x007f702ea8e36c, fault address: 0x00000000000000
━━━━━━━━━━━━━━━━━━━━━━━━━━━━━━━━━━━━━━━━━━━━ REGISTERS ━━━━━━━━━━━━━━━━━━━━━━━━━━━━━━━━━━━━━━━━━━━━━
r8 : 0x00000000000000, r9 : 0x00000000000075, r10: 0x00000000000008, r11: 0x00000000000246, 
r12: 0x00000000000006, r13: 0x007ffc08e8bd20, r14: 0x007ffc08e8b9b8, r15: 0x007ffc08e8b330, 
rdi: 0x00000000364515, rsi: 0x00000000364515, rbp: 0x007f702f176180, rbx: 0x00000000364515, 
rdx: 0x00000000000006, rax: 0x00000000000000, rcx: 0x007f702ea8e36c, rsp: 0x007ffc08e8ace0, 
rip: 0x007f702ea8e36c, efl: 0x00000000000246, 
━━━━━━━━━━━━━━━━━━━━━━━━━━━━━━━━━━━━━━━━━━━━ BACKTRACE ━━━━━━━━━━━━━━━━━━━━━━━━━━━━━━━━━━━━━━━━━━━━━
   0: libafl::bolts::minibsod::generate_minibsod
             at /home/trevor/projects/others/LibAFL/libafl/src/bolts/minibsod.rs:284:30
   1: libafl::executors::inprocess::unix_signal_handler::inproc_crash_handler
             at /home/trevor/projects/others/LibAFL/libafl/src/executors/inprocess.rs:778:17
   2: libafl::executors::inprocess::unix_signal_handler::<impl libafl::bolts::os::unix_signals::Handler for libafl::executors::inprocess::InProcessExecutorHandlerData>::handle
   3: libafl::bolts::os::unix_signals::handle_signal
             at /home/trevor/projects/others/LibAFL/libafl/src/bolts/os/unix_signals.rs:223:5
   4: <unknown>
   5: <unknown>
   6: gsignal
   7: abort
   8: secret_dispatch
   9: apdu_dispatch
  10: apdu_parse
  11: ccid_parse
  12: LLVMFuzzerTestOneInputHw
  13: libafl_targets::libfuzzer::libfuzzer_test_one_input_hw
             at /home/trevor/projects/others/LibAFL/libafl_targets/src/libfuzzer.rs:69:14
      zebrafuzz::hw_fuzz::{{closure}}
             at src/lib.rs:142:9
      <libafl::executors::inprocess::GenericInProcessExecutor<H,HB,I,OT,S> as libafl::executors::Executor<EM,I,S,Z>>::run_target
             at /home/trevor/projects/others/LibAFL/libafl/src/executors/inprocess.rs:116:19
      libafl::fuzzer::StdFuzzer<CS,F,I,OF,OT,S>::execute_input
             at /home/trevor/projects/others/LibAFL/libafl/src/fuzzer/mod.rs:730:25
      <libafl::fuzzer::StdFuzzer<CS,F,I,OF,OT,S> as libafl::fuzzer::EvaluatorObservers<I,OT,S>>::evaluate_input_with_observers
             at /home/trevor/projects/others/LibAFL/libafl/src/fuzzer/mod.rs:543:25
  14: libafl::events::llmp::LlmpEventManager<I,OT,S,SP>::handle_in_client
             at /home/trevor/projects/others/LibAFL/libafl/src/events/llmp.rs:458:21
      <libafl::events::llmp::LlmpEventManager<I,OT,S,SP> as libafl::events::EventProcessor<E,I,S,Z>>::process
             at /home/trevor/projects/others/LibAFL/libafl/src/events/llmp.rs:599:13
      <libafl::events::llmp::LlmpRestartingEventManager<I,OT,S,SP> as libafl::events::EventProcessor<E,I,S,Z>>::process
             at /home/trevor/projects/others/LibAFL/libafl/src/events/llmp.rs:718:9
  15: zebrafuzz::hw_fuzz
             at src/lib.rs:209:31
  16: libafl_main
             at src/lib.rs:122:11
  17: main
             at /home/trevor/projects/others/LibAFL/libafl_targets/src/libfuzzer.c:24:3
  18: <unknown>
  19: __libc_start_main
  20: _start
             at /build/glibc/src/glibc/csu/../sysdeps/x86_64/start.S:115

━━━━━━━━━━━━━━━━━━━━━━━━━━━━━━━━━━━━━━━━━━━━━━━ MAPS ━━━━━━━━━━━━━━━━━━━━━━━━━━━━━━━━━━━━━━━━━━━━━━━
00400000-00424000 r--p 00000000 fe:03 13501426                           /home/trevor/projects/others/LibAFL/fuzzers/gatech/zebrafuzz
00424000-005a4000 r-xp 00024000 fe:03 13501426                           /home/trevor/projects/others/LibAFL/fuzzers/gatech/zebrafuzz
005a4000-005fa000 r--p 001a4000 fe:03 13501426                           /home/trevor/projects/others/LibAFL/fuzzers/gatech/zebrafuzz
005fb000-0060d000 r--p 001fa000 fe:03 13501426                           /home/trevor/projects/others/LibAFL/fuzzers/gatech/zebrafuzz
0060d000-00648000 rw-p 0020c000 fe:03 13501426                           /home/trevor/projects/others/LibAFL/fuzzers/gatech/zebrafuzz
00648000-02714000 rw-p 00000000 00:00 0 
0335a000-0337b000 rw-p 00000000 00:00 0                                  [heap]
37795c00000-377a5c00000 rw-p 00000000 00:00 0 
7f6f2c600000-7f6f2c801000 r--p 00000000 fe:03 16518524                   /usr/lib/libc.so.6
7f6f2ca00000-7f6f2e1f5000 r--p 00000000 fe:03 13501426                   /home/trevor/projects/others/LibAFL/fuzzers/gatech/zebrafuzz
7f6f2e1ff000-7f6f3e1ff000 rw-s 00000000 00:01 2097504                    /SYSV00000000 (deleted)
7f6f3e1ff000-7f6f4e1ff000 rw-s 00000000 00:01 2097496                    /SYSV00000000 (deleted)
7f6f4e1ff000-7f6f5e1ff000 rw-s 00000000 00:01 2097494                    /SYSV00000000 (deleted)
7f6f5e1ff000-7f6f6e1ff000 rw-s 00000000 00:01 2097493                    /SYSV00000000 (deleted)
7f6f6e1ff000-7f6f7e1ff000 rw-s 00000000 00:01 2097491                    /SYSV00000000 (deleted)
7f6f7e1ff000-7f6f8e1ff000 rw-s 00000000 00:01 2097490                    /SYSV00000000 (deleted)
7f6f8e1ff000-7f6f9e1ff000 rw-s 00000000 00:01 2097489                    /SYSV00000000 (deleted)
7f6f9e1ff000-7f6fae1ff000 rw-s 00000000 00:01 2097487                    /SYSV00000000 (deleted)
7f6fae1ff000-7f6fbe1ff000 rw-s 00000000 00:01 2097486                    /SYSV00000000 (deleted)
7f6fbe1ff000-7f6fce1ff000 rw-s 00000000 00:01 2097485                    /SYSV00000000 (deleted)
7f6fce1ff000-7f6fde1ff000 rw-s 00000000 00:01 2097483                    /SYSV00000000 (deleted)
7f6fde1ff000-7f6fdea00000 rw-p 00000000 00:00 0 
7f6fdea00000-7f6feea00000 rw-s 00000000 00:01 2097476                    /SYSV00000000 (deleted)
7f6feea00000-7f6ffea00000 rw-s 00000000 00:01 2097478                    /SYSV00000000 (deleted)
7f6ffea00000-7f700ea00000 rw-s 00000000 00:01 2097480                    /SYSV00000000 (deleted)
7f700ea00000-7f701ea00000 rw-s 00000000 00:01 2097478                    /SYSV00000000 (deleted)
7f701ea00000-7f702ea00000 rw-s 00000000 00:01 2097476                    /SYSV00000000 (deleted)
7f702ea00000-7f702ea28000 r--p 00000000 fe:03 16518524                   /usr/lib/libc.so.6
7f702ea28000-7f702eba0000 r-xp 00028000 fe:03 16518524                   /usr/lib/libc.so.6
7f702eba0000-7f702ebf8000 r--p 001a0000 fe:03 16518524                   /usr/lib/libc.so.6
7f702ebf8000-7f702ebf9000 ---p 001f8000 fe:03 16518524                   /usr/lib/libc.so.6
7f702ebf9000-7f702ebfd000 r--p 001f8000 fe:03 16518524                   /usr/lib/libc.so.6
7f702ebfd000-7f702ebff000 rw-p 001fc000 fe:03 16518524                   /usr/lib/libc.so.6
7f702ebff000-7f702ec0c000 rw-p 00000000 00:00 0 
7f702ee00000-7f702ee75000 r--p 00000000 fe:03 16522736                   /usr/lib/libcrypto.so.1.1
7f702ee75000-7f702f021000 r-xp 00075000 fe:03 16522736                   /usr/lib/libcrypto.so.1.1
7f702f021000-7f702f0ae000 r--p 00221000 fe:03 16522736                   /usr/lib/libcrypto.so.1.1
7f702f0ae000-7f702f0af000 ---p 002ae000 fe:03 16522736                   /usr/lib/libcrypto.so.1.1
7f702f0af000-7f702f0da000 r--p 002ae000 fe:03 16522736                   /usr/lib/libcrypto.so.1.1
7f702f0da000-7f702f0dc000 rw-p 002d9000 fe:03 16522736                   /usr/lib/libcrypto.so.1.1
7f702f0dc000-7f702f0e0000 rw-p 00000000 00:00 0 
7f702f175000-7f702f177000 rw-p 00000000 00:00 0 
7f702f177000-7f702f179000 r--p 00000000 fe:03 16519294                   /usr/lib/libatomic.so.1.2.0
7f702f179000-7f702f17c000 r-xp 00002000 fe:03 16519294                   /usr/lib/libatomic.so.1.2.0
7f702f17c000-7f702f17e000 r--p 00005000 fe:03 16519294                   /usr/lib/libatomic.so.1.2.0
7f702f17e000-7f702f17f000 r--p 00006000 fe:03 16519294                   /usr/lib/libatomic.so.1.2.0
7f702f17f000-7f702f180000 rw-p 00007000 fe:03 16519294                   /usr/lib/libatomic.so.1.2.0
7f702f180000-7f702f181000 rw-p 00000000 00:00 0 
7f702f181000-7f702f184000 r--p 00000000 fe:03 16519297                   /usr/lib/libgcc_s.so.1
7f702f184000-7f702f19b000 r-xp 00003000 fe:03 16519297                   /usr/lib/libgcc_s.so.1
7f702f19b000-7f702f19f000 r--p 0001a000 fe:03 16519297                   /usr/lib/libgcc_s.so.1
7f702f19f000-7f702f1a0000 r--p 0001d000 fe:03 16519297                   /usr/lib/libgcc_s.so.1
7f702f1a0000-7f702f1a1000 rw-p 0001e000 fe:03 16519297                   /usr/lib/libgcc_s.so.1
7f702f1a1000-7f702f1a3000 rw-p 00000000 00:00 0 
7f702f1a3000-7f702f1b1000 r--p 00000000 fe:03 16518539                   /usr/lib/libm.so.6
7f702f1b1000-7f702f22a000 r-xp 0000e000 fe:03 16518539                   /usr/lib/libm.so.6
7f702f22a000-7f702f288000 r--p 00087000 fe:03 16518539                   /usr/lib/libm.so.6
7f702f288000-7f702f289000 r--p 000e4000 fe:03 16518539                   /usr/lib/libm.so.6
7f702f289000-7f702f28a000 rw-p 000e5000 fe:03 16518539                   /usr/lib/libm.so.6
7f702f28a000-7f702f28f000 r--p 00000000 fe:03 16540581                   /usr/lib/libusb-1.0.so.0.3.0
7f702f28f000-7f702f29e000 r-xp 00005000 fe:03 16540581                   /usr/lib/libusb-1.0.so.0.3.0
7f702f29e000-7f702f2a6000 r--p 00014000 fe:03 16540581                   /usr/lib/libusb-1.0.so.0.3.0
7f702f2a6000-7f702f2a7000 ---p 0001c000 fe:03 16540581                   /usr/lib/libusb-1.0.so.0.3.0
7f702f2a7000-7f702f2a8000 r--p 0001c000 fe:03 16540581                   /usr/lib/libusb-1.0.so.0.3.0
7f702f2a8000-7f702f2a9000 rw-p 0001d000 fe:03 16540581                   /usr/lib/libusb-1.0.so.0.3.0
7f702f2a9000-7f702f2ae000 r--p 00000000 fe:03 16563505                   /usr/lib/libudev.so.1.7.4
7f702f2ae000-7f702f2c9000 r-xp 00005000 fe:03 16563505                   /usr/lib/libudev.so.1.7.4
7f702f2c9000-7f702f2d4000 r--p 00020000 fe:03 16563505                   /usr/lib/libudev.so.1.7.4
7f702f2d4000-7f702f2d5000 ---p 0002b000 fe:03 16563505                   /usr/lib/libudev.so.1.7.4
7f702f2d5000-7f702f2d6000 r--p 0002b000 fe:03 16563505                   /usr/lib/libudev.so.1.7.4
7f702f2d6000-7f702f2d7000 rw-p 0002c000 fe:03 16563505                   /usr/lib/libudev.so.1.7.4
7f702f2d7000-7f702f2f4000 r--p 00000000 fe:03 16522740                   /usr/lib/libssl.so.1.1
7f702f2f4000-7f702f347000 r-xp 0001d000 fe:03 16522740                   /usr/lib/libssl.so.1.1
7f702f347000-7f702f35f000 r--p 00070000 fe:03 16522740                   /usr/lib/libssl.so.1.1
7f702f35f000-7f702f368000 r--p 00087000 fe:03 16522740                   /usr/lib/libssl.so.1.1
7f702f368000-7f702f36c000 rw-p 00090000 fe:03 16522740                   /usr/lib/libssl.so.1.1
7f702f38f000-7f702f391000 rw-p 00000000 00:00 0 
7f702f391000-7f702f393000 r--p 00000000 fe:03 16518513                   /usr/lib/ld-linux-x86-64.so.2
7f702f393000-7f702f3ba000 r-xp 00002000 fe:03 16518513                   /usr/lib/ld-linux-x86-64.so.2
7f702f3ba000-7f702f3c5000 r--p 00029000 fe:03 16518513                   /usr/lib/ld-linux-x86-64.so.2
7f702f3c6000-7f702f3c8000 r--p 00034000 fe:03 16518513                   /usr/lib/ld-linux-x86-64.so.2
7f702f3c8000-7f702f3ca000 rw-p 00036000 fe:03 16518513                   /usr/lib/ld-linux-x86-64.so.2
7ffc08e6c000-7ffc08e8d000 rw-p 00000000 00:00 0                          [stack]
7ffc08ee8000-7ffc08eec000 r--p 00000000 00:00 0                          [vvar]
7ffc08eec000-7ffc08eee000 r-xp 00000000 00:00 0                          [vdso]
ffffffffff600000-ffffffffff601000 --xp 00000000 00:00 0                  [vsyscall]
Crash handler in HW fuzzer, exiting completely.
Waiting for broker...
Bye!
TREV TEMP: exiting early
