Workdir: "/home/trevor/projects/others/LibAFL/fuzzers/gatech"
We're the client (internal port already bound by broker, Os {
    code: 98,
    kind: AddrInUse,
    message: "Address already in use",
})
Connected to port 1337
[/home/trevor/projects/others/LibAFL/libafl/src/events/llmp.rs:959] "Spawning next client (id {})" = "Spawning next client (id {})"
[/home/trevor/projects/others/LibAFL/libafl/src/events/llmp.rs:959] ctr = 0
First run. Let's set it all up
Running fuzzer against primary target (simulator)
calibratation file: "calibration/cal01"
Input added from corpus (add_input)
calibratation file: "calibration/cal02"
Input added from corpus (add_input)
calibratation file: "calibration/cal03"
ENABLE CALIBRATE (seen: 2)
Input added from corpus (add_input)
calibratation file: "calibration/cal04"
Input added from corpus (add_input)
calibratation file: "calibration/cal05"
Input added from corpus (add_input)
DISABLE CALIBRATE (seen: 5)
Input added from corpus (add_input)
Input added from corpus (add_input)
Input added from corpus (add_input)
Input added from corpus (add_input)
Input added from corpus (add_input)
Input added from corpus (add_input)
Input added from corpus (add_input)
Input added from corpus (add_input)
Input added from corpus (add_input)
Input added from corpus (add_input)
Input added from corpus (add_input)
Input added from corpus (add_input)
Input added from corpus (add_input)
Input added from corpus (add_input)
Input added from corpus (add_input)
Input added from corpus (add_input)
Input added from corpus (add_input)
Input added from corpus (add_input)
Input added from corpus (add_input)
Received new Testcase from 1 (AlwaysUnique)
Received new Testcase from 1 (AlwaysUnique)
HANDLEDHW: waiting for 1197 more responses... (sent 100006)
HANDLEDHW: waiting for 1272 more responses... (sent 200010)
HANDLEDHW: waiting for 382 more responses... (sent 300012)
HANDLEDHW: waiting for 1120 more responses... (sent 400018)
HANDLEDHW: waiting for 990 more responses... (sent 500039)
HANDLEDHW: waiting for 312 more responses... (sent 600040)
HANDLEDHW: waiting for 238 more responses... (sent 700042)
HANDLEDHW: waiting for 134 more responses... (sent 800046)
HANDLEDHW: waiting for 12 more responses... (sent 900048)
HANDLEDHW: waiting for 365 more responses... (sent 1000051)
HANDLEDHW: waiting for 1398 more responses... (sent 1100053)
HANDLEDHW: waiting for 1350 more responses... (sent 1200056)
HANDLEDHW: waiting for 130 more responses... (sent 1400064)
HANDLEDHW: waiting for 369 more responses... (sent 1500065)
HANDLEDHW: waiting for 1445 more responses... (sent 1600069)
HANDLEDHW: waiting for 648 more responses... (sent 1700074)
HANDLEDHW: waiting for 863 more responses... (sent 1800077)
HANDLEDHW: waiting for 487 more responses... (sent 1900083)
HANDLEDHW: waiting for 725 more responses... (sent 2000086)
HANDLEDHW: waiting for 1046 more responses... (sent 2100087)
HANDLEDHW: waiting for 1425 more responses... (sent 2200096)
HANDLEDHW: waiting for 193 more responses... (sent 2300097)
HANDLEDHW: waiting for 881 more responses... (sent 2400105)
HANDLEDHW: waiting for 510 more responses... (sent 2500107)
HANDLEDHW: waiting for 723 more responses... (sent 2600108)
HANDLEDHW: waiting for 256 more responses... (sent 2700110)
HANDLEDHW: waiting for 500 more responses... (sent 2800111)
HANDLEDHW: waiting for 1190 more responses... (sent 2900112)
HANDLEDHW: waiting for 934 more responses... (sent 3000114)
HANDLEDHW: waiting for 225 more responses... (sent 3100116)
HANDLEDHW: waiting for 751 more responses... (sent 3200123)
HANDLEDHW: waiting for 1399 more responses... (sent 3300131)
HANDLEDHW: waiting for 1081 more responses... (sent 3400136)
HANDLEDHW: waiting for 895 more responses... (sent 3500138)
HANDLEDHW: waiting for 1516 more responses... (sent 3600146)
HANDLEDHW: waiting for 387 more responses... (sent 3700153)
HANDLEDHW: waiting for 1004 more responses... (sent 3800154)
HANDLEDHW: waiting for 1009 more responses... (sent 3900155)
HANDLEDHW: waiting for 360 more responses... (sent 4000157)
HANDLEDHW: waiting for 258 more responses... (sent 4100158)
HANDLEDHW: waiting for 1176 more responses... (sent 4200162)
HANDLEDHW: waiting for 116 more responses... (sent 4300164)
HANDLEDHW: waiting for 198 more responses... (sent 4500176)
HANDLEDHW: waiting for 739 more responses... (sent 4700183)
HANDLEDHW: waiting for 1108 more responses... (sent 4800192)
