Workdir: "/home/trevor/projects/others/LibAFL/fuzzers/gatech"
We're the client (internal port already bound by broker, Os {
    code: 98,
    kind: AddrInUse,
    message: "Address already in use",
})
Connected to port 1337
[/home/trevor/projects/others/LibAFL/libafl/src/events/llmp.rs:959] "Spawning next client (id {})" = "Spawning next client (id {})"
[/home/trevor/projects/others/LibAFL/libafl/src/events/llmp.rs:959] ctr = 0
First run. Let's set it all up
Running fuzzer against primary target (simulator)
calibratation file: "calibration/cal01"
Input added from corpus (add_input)
calibratation file: "calibration/cal02"
Input added from corpus (add_input)
calibratation file: "calibration/cal03"
ENABLE CALIBRATE (seen: 2)
Input added from corpus (add_input)
calibratation file: "calibration/cal04"
Input added from corpus (add_input)
calibratation file: "calibration/cal05"
Input added from corpus (add_input)
DISABLE CALIBRATE (seen: 5)
Input added from corpus (add_input)
Input added from corpus (add_input)
Input added from corpus (add_input)
Input added from corpus (add_input)
Input added from corpus (add_input)
Input added from corpus (add_input)
Input added from corpus (add_input)
Input added from corpus (add_input)
Input added from corpus (add_input)
Input added from corpus (add_input)
Input added from corpus (add_input)
Input added from corpus (add_input)
Input added from corpus (add_input)
Input added from corpus (add_input)
Input added from corpus (add_input)
Input added from corpus (add_input)
Input added from corpus (add_input)
Input added from corpus (add_input)
Input added from corpus (add_input)
Received new Testcase from 1 (AlwaysUnique)
Received new Testcase from 1 (AlwaysUnique)
HANDLEDHW: waiting for 2435 more responses... (sent 100014)
HANDLEDHW: waiting for 1545 more responses... (sent 200025)
HANDLEDHW: waiting for 485 more responses... (sent 300026)
HANDLEDHW: waiting for 2110 more responses... (sent 400033)
HANDLEDHW: waiting for 679 more responses... (sent 500035)
HANDLEDHW: waiting for 74 more responses... (sent 600040)
HANDLEDHW: waiting for 2680 more responses... (sent 700052)
HANDLEDHW: waiting for 1446 more responses... (sent 800061)
HANDLEDHW: waiting for 1817 more responses... (sent 900071)
HANDLEDHW: waiting for 1888 more responses... (sent 1100091)
HANDLEDHW: waiting for 1664 more responses... (sent 1200104)
HANDLEDHW: waiting for 932 more responses... (sent 1300112)
HANDLEDHW: waiting for 42 more responses... (sent 1400114)
HANDLEDHW: waiting for 1318 more responses... (sent 1500115)
HANDLEDHW: waiting for 2103 more responses... (sent 1600117)
HANDLEDHW: waiting for 1035 more responses... (sent 1700126)
HANDLEDHW: waiting for 1867 more responses... (sent 1800158)
HANDLEDHW: waiting for 1964 more responses... (sent 2000167)
HANDLEDHW: waiting for 1594 more responses... (sent 2100170)
HANDLEDHW: waiting for 1034 more responses... (sent 2200174)
HANDLEDHW: waiting for 2306 more responses... (sent 2300180)
HANDLEDHW: waiting for 1490 more responses... (sent 2400195)
HANDLEDHW: waiting for 377 more responses... (sent 2500206)
HANDLEDHW: waiting for 2423 more responses... (sent 2600218)
HANDLEDHW: waiting for 2307 more responses... (sent 2700219)
HANDLEDHW: waiting for 1734 more responses... (sent 2800222)
HANDLEDHW: waiting for 2158 more responses... (sent 2900223)
HANDLEDHW: waiting for 2182 more responses... (sent 3000233)
HANDLEDHW: waiting for 130 more responses... (sent 3100236)
HANDLEDHW: waiting for 1156 more responses... (sent 3200249)
HANDLEDHW: waiting for 254 more responses... (sent 3300262)
HANDLEDHW: waiting for 1698 more responses... (sent 3400271)
HANDLEDHW: waiting for 214 more responses... (sent 3500287)
HANDLEDHW: waiting for 2292 more responses... (sent 3600299)
HANDLEDHW: waiting for 1312 more responses... (sent 3700303)
HANDLEDHW: waiting for 1466 more responses... (sent 3800315)
HANDLEDHW: waiting for 17 more responses... (sent 3900323)
HANDLEDHW: waiting for 1124 more responses... (sent 4000341)
HANDLEDHW: waiting for 1786 more responses... (sent 4200360)
HANDLEDHW: waiting for 455 more responses... (sent 4300369)
HANDLEDHW: waiting for 345 more responses... (sent 4400377)
HANDLEDHW: waiting for 1891 more responses... (sent 4500392)
HANDLEDHW: waiting for 199 more responses... (sent 4600410)
HANDLEDHW: waiting for 1913 more responses... (sent 4700413)
HANDLEDHW: waiting for 532 more responses... (sent 4800418)
HANDLEDHW: waiting for 1078 more responses... (sent 4900424)
HANDLEDHW: waiting for 1094 more responses... (sent 5000428)
HANDLEDHW: waiting for 1573 more responses... (sent 5100431)
HANDLEDHW: waiting for 410 more responses... (sent 5200438)
HANDLEDHW: waiting for 1426 more responses... (sent 5300442)
HANDLEDHW: waiting for 2190 more responses... (sent 5400447)
HANDLEDHW: waiting for 1667 more responses... (sent 5500456)
HANDLEDHW: waiting for 205 more responses... (sent 5600510)
HANDLEDHW: waiting for 451 more responses... (sent 5700517)
HANDLEDHW: waiting for 149 more responses... (sent 5800519)
HANDLEDHW: waiting for 1312 more responses... (sent 6000538)
HANDLEDHW: waiting for 968 more responses... (sent 6100542)
HANDLEDHW: waiting for 2076 more responses... (sent 6200544)
HANDLEDHW: waiting for 55 more responses... (sent 6300546)
HANDLEDHW: waiting for 932 more responses... (sent 6500563)
HANDLEDHW: waiting for 1640 more responses... (sent 6600566)
HANDLEDHW: waiting for 439 more responses... (sent 6700567)
HANDLEDHW: waiting for 1263 more responses... (sent 6800578)
HANDLEDHW: waiting for 1236 more responses... (sent 6900579)
HANDLEDHW: waiting for 528 more responses... (sent 7000584)
HANDLEDHW: waiting for 1193 more responses... (sent 7100597)
HANDLEDHW: waiting for 879 more responses... (sent 7200602)
HANDLEDHW: waiting for 2325 more responses... (sent 7300642)
HANDLEDHW: waiting for 1378 more responses... (sent 7500656)
HANDLEDHW: waiting for 1 more responses... (sent 7600669)
HANDLEDHW: waiting for 146 more responses... (sent 7700683)
HANDLEDHW: waiting for 1156 more responses... (sent 8000691)
HANDLEDHW: waiting for 2431 more responses... (sent 8100692)
HANDLEDHW: waiting for 665 more responses... (sent 8200694)
HANDLEDHW: waiting for 513 more responses... (sent 8300716)
HANDLEDHW: waiting for 1565 more responses... (sent 8500745)
