Workdir: "/home/trevor/projects/others/LibAFL/fuzzers/gatech"
We're the broker
Doing broker things. Run this tool again to start fuzzing in a client.
New connection: 127.0.0.1:55592/127.0.0.1:55592
[Testcase    #1]  (GLOBAL) run time: 0h-0m-0s, clients: 2, corpus: 1, objectives: 0, executions: 1, exec/sec: 0
                  (CLIENT) corpus: 1, objectives: 0, executions: 1, exec/sec: 0
[Testcase    #1]  (GLOBAL) run time: 0h-0m-0s, clients: 2, corpus: 2, objectives: 0, executions: 2, exec/sec: 0
                  (CLIENT) corpus: 2, objectives: 0, executions: 2, exec/sec: 0
[Testcase    #1]  (GLOBAL) run time: 0h-0m-0s, clients: 2, corpus: 3, objectives: 0, executions: 3, exec/sec: 0
                  (CLIENT) corpus: 3, objectives: 0, executions: 3, exec/sec: 0
[Testcase    #1]  (GLOBAL) run time: 0h-0m-0s, clients: 2, corpus: 4, objectives: 0, executions: 4, exec/sec: 0
                  (CLIENT) corpus: 4, objectives: 0, executions: 4, exec/sec: 0
[Testcase    #1]  (GLOBAL) run time: 0h-0m-0s, clients: 2, corpus: 5, objectives: 0, executions: 5, exec/sec: 0
                  (CLIENT) corpus: 5, objectives: 0, executions: 5, exec/sec: 0
[Testcase    #1]  (GLOBAL) run time: 0h-0m-0s, clients: 2, corpus: 6, objectives: 0, executions: 6, exec/sec: 0
                  (CLIENT) corpus: 6, objectives: 0, executions: 6, exec/sec: 0
[Testcase    #1]  (GLOBAL) run time: 0h-0m-0s, clients: 2, corpus: 7, objectives: 0, executions: 7, exec/sec: 0
                  (CLIENT) corpus: 7, objectives: 0, executions: 7, exec/sec: 0
[Testcase    #1]  (GLOBAL) run time: 0h-0m-0s, clients: 2, corpus: 8, objectives: 0, executions: 8, exec/sec: 0
                  (CLIENT) corpus: 8, objectives: 0, executions: 8, exec/sec: 0
[Testcase    #1]  (GLOBAL) run time: 0h-0m-0s, clients: 2, corpus: 9, objectives: 0, executions: 9, exec/sec: 0
                  (CLIENT) corpus: 9, objectives: 0, executions: 9, exec/sec: 0
[Testcase    #1]  (GLOBAL) run time: 0h-0m-0s, clients: 2, corpus: 10, objectives: 0, executions: 10, exec/sec: 0
                  (CLIENT) corpus: 10, objectives: 0, executions: 10, exec/sec: 0
[Testcase    #1]  (GLOBAL) run time: 0h-0m-0s, clients: 2, corpus: 11, objectives: 0, executions: 11, exec/sec: 0
                  (CLIENT) corpus: 11, objectives: 0, executions: 11, exec/sec: 0
[Testcase    #1]  (GLOBAL) run time: 0h-0m-0s, clients: 2, corpus: 12, objectives: 0, executions: 12, exec/sec: 0
                  (CLIENT) corpus: 12, objectives: 0, executions: 12, exec/sec: 0
[Testcase    #1]  (GLOBAL) run time: 0h-0m-0s, clients: 2, corpus: 13, objectives: 0, executions: 13, exec/sec: 0
                  (CLIENT) corpus: 13, objectives: 0, executions: 13, exec/sec: 0
[Testcase    #1]  (GLOBAL) run time: 0h-0m-0s, clients: 2, corpus: 14, objectives: 0, executions: 14, exec/sec: 0
                  (CLIENT) corpus: 14, objectives: 0, executions: 14, exec/sec: 0
[Testcase    #1]  (GLOBAL) run time: 0h-0m-0s, clients: 2, corpus: 15, objectives: 0, executions: 15, exec/sec: 0
                  (CLIENT) corpus: 15, objectives: 0, executions: 15, exec/sec: 0
[Testcase    #1]  (GLOBAL) run time: 0h-0m-0s, clients: 2, corpus: 16, objectives: 0, executions: 16, exec/sec: 0
                  (CLIENT) corpus: 16, objectives: 0, executions: 16, exec/sec: 0
[Testcase    #1]  (GLOBAL) run time: 0h-0m-0s, clients: 2, corpus: 17, objectives: 0, executions: 17, exec/sec: 0
                  (CLIENT) corpus: 17, objectives: 0, executions: 17, exec/sec: 0
[Testcase    #1]  (GLOBAL) run time: 0h-0m-0s, clients: 2, corpus: 18, objectives: 0, executions: 18, exec/sec: 0
                  (CLIENT) corpus: 18, objectives: 0, executions: 18, exec/sec: 0
[Testcase    #1]  (GLOBAL) run time: 0h-0m-0s, clients: 2, corpus: 19, objectives: 0, executions: 19, exec/sec: 0
                  (CLIENT) corpus: 19, objectives: 0, executions: 19, exec/sec: 0
[Testcase    #1]  (GLOBAL) run time: 0h-0m-0s, clients: 2, corpus: 20, objectives: 0, executions: 20, exec/sec: 0
                  (CLIENT) corpus: 20, objectives: 0, executions: 20, exec/sec: 0
[Testcase    #1]  (GLOBAL) run time: 0h-0m-0s, clients: 2, corpus: 21, objectives: 0, executions: 21, exec/sec: 0
                  (CLIENT) corpus: 21, objectives: 0, executions: 21, exec/sec: 0
[Testcase    #1]  (GLOBAL) run time: 0h-0m-0s, clients: 2, corpus: 22, objectives: 0, executions: 22, exec/sec: 0
                  (CLIENT) corpus: 22, objectives: 0, executions: 22, exec/sec: 0
[Testcase    #1]  (GLOBAL) run time: 0h-0m-0s, clients: 2, corpus: 23, objectives: 0, executions: 23, exec/sec: 0
                  (CLIENT) corpus: 23, objectives: 0, executions: 23, exec/sec: 0
[Testcase    #1]  (GLOBAL) run time: 0h-0m-0s, clients: 2, corpus: 24, objectives: 0, executions: 24, exec/sec: 0
                  (CLIENT) corpus: 24, objectives: 0, executions: 24, exec/sec: 0
[LOG Debug]: Loaded 24 initial testcases.
[LOG Debug]: Loaded 24 initial testcases.
[Stats       #1]  (GLOBAL) run time: 0h-0m-15s, clients: 2, corpus: 24, objectives: 0, executions: 8355347, exec/sec: 553878
                  (CLIENT) corpus: 24, objectives: 0, executions: 8355347, exec/sec: 553877
[Stats       #1]  (GLOBAL) run time: 0h-0m-30s, clients: 2, corpus: 24, objectives: 0, executions: 16624482, exec/sec: 552584
                  (CLIENT) corpus: 24, objectives: 0, executions: 16624482, exec/sec: 552584
[Stats       #1]  (GLOBAL) run time: 0h-0m-45s, clients: 2, corpus: 24, objectives: 0, executions: 24896681, exec/sec: 552206
                  (CLIENT) corpus: 24, objectives: 0, executions: 24896681, exec/sec: 552206
[Stats       #1]  (GLOBAL) run time: 0h-1m-0s, clients: 2, corpus: 24, objectives: 0, executions: 33131975, exec/sec: 551394
                  (CLIENT) corpus: 24, objectives: 0, executions: 33131975, exec/sec: 551393
[Stats       #1]  (GLOBAL) run time: 0h-1m-15s, clients: 2, corpus: 24, objectives: 0, executions: 40475024, exec/sec: 539028
                  (CLIENT) corpus: 24, objectives: 0, executions: 40475024, exec/sec: 539027
[Stats       #1]  (GLOBAL) run time: 0h-1m-30s, clients: 2, corpus: 24, objectives: 0, executions: 48797538, exec/sec: 541671
                  (CLIENT) corpus: 24, objectives: 0, executions: 48797538, exec/sec: 541671
[Stats       #1]  (GLOBAL) run time: 0h-1m-45s, clients: 2, corpus: 24, objectives: 0, executions: 57046104, exec/sec: 542852
                  (CLIENT) corpus: 24, objectives: 0, executions: 57046104, exec/sec: 542852
[Stats       #1]  (GLOBAL) run time: 0h-2m-0s, clients: 2, corpus: 24, objectives: 0, executions: 65068355, exec/sec: 541847
                  (CLIENT) corpus: 24, objectives: 0, executions: 65068355, exec/sec: 541847
[Stats       #1]  (GLOBAL) run time: 0h-2m-15s, clients: 2, corpus: 24, objectives: 0, executions: 72527503, exec/sec: 536895
                  (CLIENT) corpus: 24, objectives: 0, executions: 72527503, exec/sec: 536895
[Stats       #1]  (GLOBAL) run time: 0h-2m-30s, clients: 2, corpus: 24, objectives: 0, executions: 80364984, exec/sec: 535445
                  (CLIENT) corpus: 24, objectives: 0, executions: 80364984, exec/sec: 535445
[Stats       #1]  (GLOBAL) run time: 0h-2m-45s, clients: 2, corpus: 24, objectives: 0, executions: 87783070, exec/sec: 531740
                  (CLIENT) corpus: 24, objectives: 0, executions: 87783070, exec/sec: 531740
[Stats       #1]  (GLOBAL) run time: 0h-3m-0s, clients: 2, corpus: 24, objectives: 0, executions: 96058132, exec/sec: 533390
                  (CLIENT) corpus: 24, objectives: 0, executions: 96058132, exec/sec: 533390
[Stats       #1]  (GLOBAL) run time: 0h-3m-15s, clients: 2, corpus: 24, objectives: 0, executions: 103376748, exec/sec: 529896
                  (CLIENT) corpus: 24, objectives: 0, executions: 103376748, exec/sec: 529896
[Stats       #1]  (GLOBAL) run time: 0h-3m-30s, clients: 2, corpus: 24, objectives: 0, executions: 111445165, exec/sec: 530462
                  (CLIENT) corpus: 24, objectives: 0, executions: 111445165, exec/sec: 530462
[Stats       #1]  (GLOBAL) run time: 0h-3m-45s, clients: 2, corpus: 24, objectives: 0, executions: 119598213, exec/sec: 531344
                  (CLIENT) corpus: 24, objectives: 0, executions: 119598213, exec/sec: 531344
[Stats       #1]  (GLOBAL) run time: 0h-4m-0s, clients: 2, corpus: 24, objectives: 0, executions: 127543938, exec/sec: 531238
                  (CLIENT) corpus: 24, objectives: 0, executions: 127543938, exec/sec: 531238
[Stats       #1]  (GLOBAL) run time: 0h-4m-15s, clients: 2, corpus: 24, objectives: 0, executions: 135326993, exec/sec: 530510
                  (CLIENT) corpus: 24, objectives: 0, executions: 135326993, exec/sec: 530510
[Stats       #1]  (GLOBAL) run time: 0h-4m-30s, clients: 2, corpus: 24, objectives: 0, executions: 143219457, exec/sec: 530269
                  (CLIENT) corpus: 24, objectives: 0, executions: 143219457, exec/sec: 530269
[Stats       #1]  (GLOBAL) run time: 0h-4m-45s, clients: 2, corpus: 24, objectives: 0, executions: 150150391, exec/sec: 526677
                  (CLIENT) corpus: 24, objectives: 0, executions: 150150391, exec/sec: 526677
[Stats       #1]  (GLOBAL) run time: 0h-5m-0s, clients: 2, corpus: 24, objectives: 0, executions: 158353193, exec/sec: 527686
                  (CLIENT) corpus: 24, objectives: 0, executions: 158353193, exec/sec: 527686
[Stats       #1]  (GLOBAL) run time: 0h-5m-15s, clients: 2, corpus: 24, objectives: 0, executions: 165520426, exec/sec: 525311
                  (CLIENT) corpus: 24, objectives: 0, executions: 165520426, exec/sec: 525311
[Stats       #1]  (GLOBAL) run time: 0h-5m-30s, clients: 2, corpus: 24, objectives: 0, executions: 173276575, exec/sec: 524937
                  (CLIENT) corpus: 24, objectives: 0, executions: 173276575, exec/sec: 524937
[Stats       #1]  (GLOBAL) run time: 0h-5m-45s, clients: 2, corpus: 24, objectives: 0, executions: 181546358, exec/sec: 526081
                  (CLIENT) corpus: 24, objectives: 0, executions: 181546358, exec/sec: 526081
[Stats       #1]  (GLOBAL) run time: 0h-6m-0s, clients: 2, corpus: 24, objectives: 0, executions: 188421391, exec/sec: 523260
                  (CLIENT) corpus: 24, objectives: 0, executions: 188421391, exec/sec: 523260
[Stats       #1]  (GLOBAL) run time: 0h-6m-15s, clients: 2, corpus: 24, objectives: 0, executions: 195412726, exec/sec: 520973
                  (CLIENT) corpus: 24, objectives: 0, executions: 195412726, exec/sec: 520973
[Stats       #1]  (GLOBAL) run time: 0h-6m-30s, clients: 2, corpus: 24, objectives: 0, executions: 201400905, exec/sec: 516292
                  (CLIENT) corpus: 24, objectives: 0, executions: 201400905, exec/sec: 516292
[Stats       #1]  (GLOBAL) run time: 0h-6m-45s, clients: 2, corpus: 24, objectives: 0, executions: 209709131, exec/sec: 517685
                  (CLIENT) corpus: 24, objectives: 0, executions: 209709131, exec/sec: 517685
[Stats       #1]  (GLOBAL) run time: 0h-7m-0s, clients: 2, corpus: 24, objectives: 0, executions: 217337314, exec/sec: 517360
                  (CLIENT) corpus: 24, objectives: 0, executions: 217337314, exec/sec: 517360
[Stats       #1]  (GLOBAL) run time: 0h-7m-15s, clients: 2, corpus: 24, objectives: 0, executions: 224716450, exec/sec: 516482
                  (CLIENT) corpus: 24, objectives: 0, executions: 224716450, exec/sec: 516482
[Stats       #1]  (GLOBAL) run time: 0h-7m-30s, clients: 2, corpus: 24, objectives: 0, executions: 232956096, exec/sec: 517576
                  (CLIENT) corpus: 24, objectives: 0, executions: 232956096, exec/sec: 517576
[Stats       #1]  (GLOBAL) run time: 0h-7m-45s, clients: 2, corpus: 24, objectives: 0, executions: 240248834, exec/sec: 516560
                  (CLIENT) corpus: 24, objectives: 0, executions: 240248834, exec/sec: 516560
[Stats       #1]  (GLOBAL) run time: 0h-8m-0s, clients: 2, corpus: 24, objectives: 0, executions: 248331380, exec/sec: 517260
                  (CLIENT) corpus: 24, objectives: 0, executions: 248331380, exec/sec: 517260
[Stats       #1]  (GLOBAL) run time: 0h-8m-15s, clients: 2, corpus: 24, objectives: 0, executions: 255409482, exec/sec: 515883
                  (CLIENT) corpus: 24, objectives: 0, executions: 255409482, exec/sec: 515883
[Stats       #1]  (GLOBAL) run time: 0h-8m-30s, clients: 2, corpus: 24, objectives: 0, executions: 263483746, exec/sec: 516541
                  (CLIENT) corpus: 24, objectives: 0, executions: 263483746, exec/sec: 516541
[Stats       #1]  (GLOBAL) run time: 0h-8m-45s, clients: 2, corpus: 24, objectives: 0, executions: 269950269, exec/sec: 514099
                  (CLIENT) corpus: 24, objectives: 0, executions: 269950269, exec/sec: 514099
[Stats       #1]  (GLOBAL) run time: 0h-9m-0s, clients: 2, corpus: 24, objectives: 0, executions: 278196747, exec/sec: 515093
                  (CLIENT) corpus: 24, objectives: 0, executions: 278196747, exec/sec: 515093
[Stats       #1]  (GLOBAL) run time: 0h-9m-15s, clients: 2, corpus: 24, objectives: 0, executions: 285921245, exec/sec: 515086
                  (CLIENT) corpus: 24, objectives: 0, executions: 285921245, exec/sec: 515086
[Stats       #1]  (GLOBAL) run time: 0h-9m-30s, clients: 2, corpus: 24, objectives: 0, executions: 293438556, exec/sec: 514719
                  (CLIENT) corpus: 24, objectives: 0, executions: 293438556, exec/sec: 514719
[Stats       #1]  (GLOBAL) run time: 0h-9m-45s, clients: 2, corpus: 24, objectives: 0, executions: 301751316, exec/sec: 515734
                  (CLIENT) corpus: 24, objectives: 0, executions: 301751316, exec/sec: 515734
[Stats       #1]  (GLOBAL) run time: 0h-10m-0s, clients: 2, corpus: 24, objectives: 0, executions: 309410592, exec/sec: 515604
                  (CLIENT) corpus: 24, objectives: 0, executions: 309410592, exec/sec: 515604
[Stats       #1]  (GLOBAL) run time: 0h-10m-15s, clients: 2, corpus: 24, objectives: 0, executions: 316836858, exec/sec: 515102
                  (CLIENT) corpus: 24, objectives: 0, executions: 316836858, exec/sec: 515102
[Stats       #1]  (GLOBAL) run time: 0h-10m-30s, clients: 2, corpus: 24, objectives: 0, executions: 325083900, exec/sec: 515932
                  (CLIENT) corpus: 24, objectives: 0, executions: 325083900, exec/sec: 515932
[Stats       #1]  (GLOBAL) run time: 0h-10m-45s, clients: 2, corpus: 24, objectives: 0, executions: 332405804, exec/sec: 515283
                  (CLIENT) corpus: 24, objectives: 0, executions: 332405804, exec/sec: 515283
[Stats       #1]  (GLOBAL) run time: 0h-11m-0s, clients: 2, corpus: 24, objectives: 0, executions: 340619591, exec/sec: 516019
                  (CLIENT) corpus: 24, objectives: 0, executions: 340619591, exec/sec: 516019
[Stats       #1]  (GLOBAL) run time: 0h-11m-15s, clients: 2, corpus: 24, objectives: 0, executions: 347905134, exec/sec: 515344
                  (CLIENT) corpus: 24, objectives: 0, executions: 347905134, exec/sec: 515344
[Stats       #1]  (GLOBAL) run time: 0h-11m-30s, clients: 2, corpus: 24, objectives: 0, executions: 356182525, exec/sec: 516135
                  (CLIENT) corpus: 24, objectives: 0, executions: 356182525, exec/sec: 516135
[Stats       #1]  (GLOBAL) run time: 0h-11m-45s, clients: 2, corpus: 24, objectives: 0, executions: 364267690, exec/sec: 516625
                  (CLIENT) corpus: 24, objectives: 0, executions: 364267690, exec/sec: 516625
[Stats       #1]  (GLOBAL) run time: 0h-12m-0s, clients: 2, corpus: 24, objectives: 0, executions: 371513355, exec/sec: 515922
                  (CLIENT) corpus: 24, objectives: 0, executions: 371513355, exec/sec: 515922
[Stats       #1]  (GLOBAL) run time: 0h-12m-15s, clients: 2, corpus: 24, objectives: 0, executions: 379644213, exec/sec: 516456
                  (CLIENT) corpus: 24, objectives: 0, executions: 379644213, exec/sec: 516456
[Stats       #1]  (GLOBAL) run time: 0h-12m-30s, clients: 2, corpus: 24, objectives: 0, executions: 386587763, exec/sec: 515387
                  (CLIENT) corpus: 24, objectives: 0, executions: 386587763, exec/sec: 515387
UNIX SIG HANDLER

