Workdir: "/home/trevor/projects/others/LibAFL/fuzzers/gatech"
We're the client (internal port already bound by broker, Os {
    code: 98,
    kind: AddrInUse,
    message: "Address already in use",
})
Connected to port 1337
[/home/trevor/projects/others/LibAFL/libafl/src/events/llmp.rs:959] "Spawning next client (id {})" = "Spawning next client (id {})"
[/home/trevor/projects/others/LibAFL/libafl/src/events/llmp.rs:959] ctr = 0
Awaiting safe_to_unmap_blocking
First run. Let's set it all up
Starting a single-target blackbox fuzzer!
calibratation file: "calibration/cal01"
Input added from corpus (add_input)
calibratation file: "calibration/cal02"
Input added from corpus (add_input)
calibratation file: "calibration/cal03"
Input added from corpus (add_input)
calibratation file: "calibration/cal04"
Input added from corpus (add_input)
calibratation file: "calibration/cal05"
Input added from corpus (add_input)
Input added from corpus (add_input)
Input added from corpus (add_input)
Input added from corpus (add_input)
Input added from corpus (add_input)
Input added from corpus (add_input)
Input added from corpus (add_input)
Input added from corpus (add_input)
Input added from corpus (add_input)
Input added from corpus (add_input)
Input added from corpus (add_input)
Input added from corpus (add_input)
Input added from corpus (add_input)
Input added from corpus (add_input)
Input added from corpus (add_input)
Input added from corpus (add_input)
Input added from corpus (add_input)
Input added from corpus (add_input)
Input added from corpus (add_input)
Input added from corpus (add_input)
INFO: hit abort() #2 at /home/trevor/projects/trevor/zebrasim/zebrasim.c:394 (1 times)
INFO: hit abort() #0 at /home/trevor/projects/trevor/zebrasim/zebrasim.c:199 (1 times)
INFO: hit abort() #3 at /home/trevor/projects/trevor/zebrasim/zebrasim.c:774 (1 times)
INFO: hit abort() #4 at /home/trevor/projects/trevor/zebrasim/zebrasim.c:433 (1 times)
INFO: hit abort() #6 at /home/trevor/projects/trevor/zebrasim/zebrasim.c:320 (1 times)
INFO: hit abort() #1 at /home/trevor/projects/trevor/zebrasim/zebrasim.c:299 (1 times)

FUZZ HARNESS STATS:
 * APDUs:
  - 0: 0
  - 1: 89190007
  - 2: 44487899
  - 3: 36310643
 * ABORTs:
  - 0: 4033 (0 s)
  - 1: 430 (1 s)
  - 2: 18583 (0 s)
  - 3: 4328 (0 s)
  - 4: 10 (0 s)
  - 5: 0 (18446744072051571935 s)
  - 6: 1632 (0 s)
  - 7: 0 (18446744072051571935 s)
  - 8: 0 (18446744072051571935 s)
  - 9: 0 (18446744072051571935 s)
Total time: 746 s
Fuzzer-respawner: no state saved from last run, shutting down. (child status: 0)
