Workdir: "/home/trevor/projects/others/LibAFL/fuzzers/gatech"
We're the client (internal port already bound by broker, Os {
    code: 98,
    kind: AddrInUse,
    message: "Address already in use",
})
Connected to port 1337
[/home/trevor/projects/others/LibAFL/libafl/src/events/llmp.rs:959] "Spawning next client (id {})" = "Spawning next client (id {})"
[/home/trevor/projects/others/LibAFL/libafl/src/events/llmp.rs:959] ctr = 0
First run. Let's set it all up
Starting a single-target blackbox fuzzer!
calibratation file: "calibration/cal01"
Input added from corpus (add_input)
calibratation file: "calibration/cal02"
Input added from corpus (add_input)
calibratation file: "calibration/cal03"
Input added from corpus (add_input)
calibratation file: "calibration/cal04"
Input added from corpus (add_input)
calibratation file: "calibration/cal05"
Input added from corpus (add_input)
Input added from corpus (add_input)
Input added from corpus (add_input)
Input added from corpus (add_input)
Input added from corpus (add_input)
Input added from corpus (add_input)
Input added from corpus (add_input)
Input added from corpus (add_input)
Input added from corpus (add_input)
Input added from corpus (add_input)
Input added from corpus (add_input)
Input added from corpus (add_input)
Input added from corpus (add_input)
Input added from corpus (add_input)
Input added from corpus (add_input)
Input added from corpus (add_input)
Input added from corpus (add_input)
Input added from corpus (add_input)
Input added from corpus (add_input)
Input added from corpus (add_input)
INFO: hit abort() #3 at /home/trevor/projects/trevor/zebrasim/zebrasim.c:774 (1 times)
INFO: hit abort() #0 at /home/trevor/projects/trevor/zebrasim/zebrasim.c:199 (1 times)
INFO: hit abort() #6 at /home/trevor/projects/trevor/zebrasim/zebrasim.c:320 (1 times)
INFO: hit abort() #1 at /home/trevor/projects/trevor/zebrasim/zebrasim.c:299 (1 times)
INFO: hit abort() #2 at /home/trevor/projects/trevor/zebrasim/zebrasim.c:394 (1 times)
INFO: hit abort() #4 at /home/trevor/projects/trevor/zebrasim/zebrasim.c:433 (1 times)

FUZZ HARNESS STATS:
 * APDUs:
  - 0: 0
  - 1: 88720720
  - 2: 44609672
  - 3: 36670645
 * ABORTs:
  - 0: 3996 (0 s)
  - 1: 445 (1 s)
  - 2: 18054 (1 s)
  - 3: 4408 (0 s)
  - 4: 10 (4 s)
  - 5: 0 (18446744072051371313 s)
  - 6: 1583 (1 s)
  - 7: 0 (18446744072051371313 s)
  - 8: 0 (18446744072051371313 s)
  - 9: 0 (18446744072051371313 s)
Total time: 697 s
Fuzzer-respawner: no state saved from last run, shutting down. (child status: 0)
